<?xml version="1.0" encoding="UTF-8" standalone="no"?>
<!DOCTYPE svg PUBLIC "-//W3C//DTD SVG 1.1//EN" "http://www.w3.org/Graphics/SVG/1.1/DTD/svg11.dtd">
<svg width="100%" height="100%" viewBox="0 0 60 60" version="1.1" xmlns="http://www.w3.org/2000/svg" xmlns:xlink="http://www.w3.org/1999/xlink" xml:space="preserve" xmlns:serif="http://www.serif.com/" style="fill-rule:evenodd;clip-rule:evenodd;stroke-linejoin:round;stroke-miterlimit:2;">
    <rect id="instagram-solid" x="0" y="0" width="60" height="60" style="fill:none;"/>
    <path d="M43.073,19.126C43.073,19.139 43.073,19.152 43.073,19.166C43.073,19.962 42.418,20.617 41.622,20.617C40.841,20.617 40.193,19.987 40.172,19.206C40.169,19.168 40.167,19.129 40.167,19.091C40.167,18.321 40.801,17.687 41.57,17.687C41.592,17.687 41.614,17.688 41.636,17.689C41.652,17.688 41.668,17.688 41.684,17.688C42.446,17.688 43.074,18.315 43.074,19.078C43.074,19.094 43.073,19.11 43.073,19.126Z" style="fill:#f77409;fill-rule:nonzero;"/>
    <path d="M39.898,52.5L20.102,52.5C19.959,52.426 19.808,52.369 19.652,52.332C14.031,51.426 10.251,48.303 8.296,42.931C7.981,41.935 7.717,40.925 7.504,39.902L7.504,20.106C7.574,19.924 7.633,19.738 7.679,19.549C8.632,13.888 11.876,10.147 17.214,8.22C18.161,7.891 19.148,7.743 20.102,7.508L39.898,7.508C40.043,7.582 39.74,7.47 39.898,7.508C45.761,8.482 50.031,12.001 51.892,17.581C52.141,18.465 52.342,19.362 52.496,20.267L52.496,39.902C52.429,40.011 52.377,40.129 52.341,40.251C51.509,45.785 48.406,49.559 43.236,51.62C42.143,51.984 41.028,52.278 39.898,52.5ZM18.759,29.903L18.759,29.971C18.759,36.134 23.81,41.215 29.973,41.252C29.984,41.252 29.995,41.252 30.006,41.252C36.177,41.252 41.254,36.175 41.254,30.004C41.254,23.834 36.177,18.756 30.006,18.756C23.874,18.756 18.814,23.771 18.759,29.903ZM22.929,29.903C22.928,29.944 22.928,29.984 22.928,30.024C22.928,33.903 26.12,37.095 29.999,37.095C33.878,37.095 37.07,33.903 37.07,30.024C37.07,26.153 33.891,22.965 30.02,22.953C26.208,22.994 23.061,26.067 22.929,29.876L22.929,29.903Z" style="fill:#fc7734;fill-rule:nonzero;"/>
    <circle cx="42.075" cy="17.626" r="2.25" style="fill:#fc7734;"/>
</svg>
