<?xml version="1.0" encoding="UTF-8" standalone="no"?>
<!DOCTYPE svg PUBLIC "-//W3C//DTD SVG 1.1//EN" "http://www.w3.org/Graphics/SVG/1.1/DTD/svg11.dtd">
<svg width="100%" height="100%" viewBox="0 0 60 60" version="1.1" xmlns="http://www.w3.org/2000/svg" xmlns:xlink="http://www.w3.org/1999/xlink" xml:space="preserve" xmlns:serif="http://www.serif.com/" style="fill-rule:evenodd;clip-rule:evenodd;stroke-linejoin:round;stroke-miterlimit:2;">
    <rect id="Youtube-solid" x="0" y="0" width="60" height="60" style="fill:none;"/>
    <path d="M55,21.884L55,38.326C54.916,38.488 54.848,38.658 54.796,38.833C54.069,43.947 49.581,47.752 44.416,47.632L15.319,47.632C10.857,47.622 6.887,44.71 5.537,40.458C5.318,39.762 5.174,39.037 5,38.326L5,21.438C5.086,21.281 5.157,21.116 5.212,20.946C6.032,15.981 10.393,12.317 15.425,12.366L44.636,12.366C47.84,12.328 50.875,13.828 52.793,16.395C53.955,18.023 54.712,19.904 55,21.884ZM23.053,29.98L23.053,36.3C23.053,37.283 23.423,37.51 24.315,37.056C28.614,35.04 32.898,32.994 37.167,30.917C37.454,30.781 37.832,30.419 37.824,30.162C37.817,29.904 37.446,29.572 37.151,29.406C32.918,27.238 28.677,25.086 24.428,22.95C23.37,22.413 23.03,22.624 23.015,23.819C23.037,25.905 23.045,27.977 23.053,29.98Z" style="fill:#fc7734;fill-rule:nonzero;"/>
</svg>
